----------------------------------------------------------------------------------------------------

/

.gitignore ( Listo NV )
Bitacora SADINAL.txt NV ->
README ( Listo NV )

----------------------------------------------------------------------------------------------------

/templates/sadinal/

index.html ( Listo NV )
index.php NV ->
templateDetails.xml ( Listo NV )

----------------------------------------------------------------------------------------------------

/templates/sadinal/css/

index.html ( Listo NV )
template.css NV ->

----------------------------------------------------------------------------------------------------

/templates/sadinal/css/fonts/

index.html ( Listo NV )

----------------------------------------------------------------------------------------------------

/templates/sadinal/html/

index.html ( Listo NV )
modules.php ( Listo NV )

----------------------------------------------------------------------------------------------------

/templates/sadinal/html/mod_menu/

default.php ( Modificado NV )
index.html ( Listo NV )

----------------------------------------------------------------------------------------------------

/templates/sadinal/images/

index.html ( Listo NV )

----------------------------------------------------------------------------------------------------

/templates/sadinal/js/

index.html ( Listo NV )

----------------------------------------------------------------------------------------------------

/templates/sadinal/js/foundation/

index.html

----------------------------------------------------------------------------------------------------

/templates/sadinal/js/foundation/css/

index.html ( Listo NV )

----------------------------------------------------------------------------------------------------

/templates/sadinal/js/foundation/img/

index.html ( Listo NV )

----------------------------------------------------------------------------------------------------

/templates/sadinal/js/foundation/js/

index.html ( Listo NV )

----------------------------------------------------------------------------------------------------

/templates/sadinal/js/foundation/js/foundation/

index.html ( Listo NV )

----------------------------------------------------------------------------------------------------

/templates/sadinal/js/foundation/js/vendor/

index.html ( Listo NV )

----------------------------------------------------------------------------------------------------

/templates/sadinal/js/jquery/

index.html ( Listo NV )
scripts.js ( Listo NV )

----------------------------------------------------------------------------------------------------

/templates/sadinal/js/jquery/fancybox/

index.html ( Listo NV )

----------------------------------------------------------------------------------------------------

/templates/sadinal/js/jquery/fancybox/helpers/

index.html ( Listo NV )

----------------------------------------------------------------------------------------------------

/templates/sadinal/language/

index.html ( Listo NV )

----------------------------------------------------------------------------------------------------

/templates/sadinal/swf/

index.html ( Listo NV )

----------------------------------------------------------------------------------------------------